{
  "project_info": {
    "project_number": "29374353033",
    "project_id": "flutter-ema-e18a8",
    "storage_bucket": "flutter-ema-e18a8.appspot.com"
  },
  "client": [
    {
      "client_info": {
        "mobilesdk_app_id": "1:29374353033:android:0d0340699e271810bf4058",
        "android_client_info": {
          "package_name": "com.digital.moodyapp"
        }
      },
      "oauth_client": [
        {
          "client_id": "29374353033-m5uj9v8l3demgkm8ptkj5cn9r15j3pso.apps.googleusercontent.com",
          "client_type": 3
        }
      ],
      "api_key": [
        {
          "current_key": "AIzaSyAaZlu7rXOTQAIZGN6lDde1ieKsHa7-ojc"
        }
      ],
      "services": {
        "appinvite_service": {
          "other_platform_oauth_client": [
            {
              "client_id": "29374353033-m5uj9v8l3demgkm8ptkj5cn9r15j3pso.apps.googleusercontent.com",
              "client_type": 3
            },
            {
              "client_id": "29374353033-uvmttfmluj0op1bc5k1rv7t2qkvaemls.apps.googleusercontent.com",
              "client_type": 2,
              "ios_info": {
                "bundle_id": "com.digital.moodyapp"
              }
            }
          ]
        }
      }
    }
  ],
  "configuration_version": "1"
}