{
	"head": {
		"sent": 1482311508470,
		"protocolVersion" : "0.0.1-beta",
		"type": "CARD_SELECTION"
	},
    
        "body" : {
            "orientation" : "UP",
            "cards" : [
                {
                    "cardType"      : "FORWARD_3",
                    "cardCode"      : 721
                }
                
            ]
        }
}
