{
	"head": {
		"sent": 1494832565899,
		"protocolVersion": "1.0.0",
		"type": "ROUND_RESULT"
	},
	"body": {
		"events": [
		{
			"uid": 5,
			"checkpoint": 1,
			"fieldX": 7,
			"fieldY": 6,
			"lifes": 2,
			"eventType": "MOVE_BACKWARD",
			"affectedUID": [],
			"orientation": "UP"
		},
		{
			"uid": 5,
			"checkpoint": 1,
			"fieldX": 7,
			"fieldY": 7,
			"lifes": 2,
			"eventType": "CHECKPOINT_REACHED",
			"affectedUID": [],
			"orientation": "UP"
		},
		{
			"uid": 4,
			"checkpoint": 1,
			"fieldX": 2,
			"fieldY": 3,
            "lifes": 1,
			"eventType": "MOVE",
			"affectedUID": [],
			"orientation": "RIGHT"
		},
		{
			"uid": 4,
			"checkpoint": 1,
			"fieldX": 3,
			"fieldY": 3,
			"lifes": 1,
			"eventType": "MOVE",
			"affectedUID": [],
			"orientation": "RIGHT"
		},
		{
			"uid": 4,
			"checkpoint": 1,
			"fieldX": 4,
			"fieldY": 3,
			"lifes": 1,
			"eventType": "COLLIDE_WITH_WALL",
			"affectedUID": [],
			"orientation": "RIGHT"
		},
		{
			"uid": 1,
			"checkpoint": 2,
			"fieldX": 7,
			"fieldY": 4,
			"lifes": 2,
			"eventType": "ROTATE_LEFT",
			"affectedUID": [],
			"orientation": "UP"
		}],
	"finalStates": [
		{
			"uid": 5,
			"checkpoint": 1,
			"fieldX": 7,
			"fieldY": 7,
			"lifes": 2,
			"orientation": "UP",
			"onMap": true
		},
		{
			"uid": 5,
			"checkpoint": 2,
			"fieldX": 7,
			"fieldY":7,
			"lifes":2,
			"orientation": "UP",
			"onMap": true
		},
		{
			"uid": 4,
			"checkpoint": 1,
			"fieldX": 3,
			"fieldY": 3,
			"lifes": 1,
			"orientation": "RIGHT",
			"onMap": true
		},
		{
			"uid": 4,
			"checkpoint": 1,
			"fieldX": 4,
			"fieldY": 3,
			"lifes": 1,
			"orientation": "RIGHT",
			"onMap": true
		},
		{
			"uid": 4,
			"checkpoint": 1,
			"fieldX": 4,
			"fieldY": 3,
			"lifes": 1,
			"orientation": "RIGHT",
			"onMap": true
		},
		{
			"uid": 1,
			"checkpoint": 2,
			"fieldX": 7,
			"fieldY": 4,
			"lifes": 2,
			"orientation": "LEFT",
			"onMap": true
		}]
	}
}
