{
  "meta": {
    "creationDate": 1495624184450,
    "type": "MAP"
  },
  "game": {
    "minPlayers": 2,
    "maxPlayers": 8,
    "maxCardSelectTime": 15000
  },
  "grid": {
    "width": 10,
    "height": 10
  },
  "checkpoints": [
    {
      "fieldX": 5,
      "fieldY": 2,
      "number": 0
    },
    {
      "fieldX": 5,
      "fieldY": 3,
      "number": 1
    },
    {
      "fieldX": 6,
      "fieldY": 3,
      "number": 2
    },
    {
      "fieldX": 7,
      "fieldY": 2,
      "number": 3
    },
    {
      "fieldX": 7,
      "fieldY": 6,
      "number": 4
    }
  ],
  "walls": [
    {
      "fieldX": 6,
      "fieldY": 2,
      "wallOrientation": "DOWN"
    },
    {
      "fieldX": 6,
      "fieldY": 5,
      "wallOrientation": "DOWN"
    },
    {
      "fieldX": 7,
      "fieldY": 5,
      "wallOrientation": "DOWN"
    },
    {
      "fieldX": 8,
      "fieldY": 5,
      "wallOrientation": "DOWN"
    }
  ],
  "assets": []
}