{
	"meta": {
		"creationDate": 1482311508470,
		"type": "MAP"
	},
	"game": {
		"minPlayers": 1,
		"maxPlayers": 8,
		"maxCardSelectTime": 15000
	},
	"grid": {
		"width": 10,
		"height": 10
	},
	"checkpoints": [
		{
			"fieldX": 4,
			"fieldY": 7,
			"number": 0
		},
		{
			"fieldX": 4,
			"fieldY": 8,
			"number": 1
		}
	],
	"walls": [
		{
			"fieldX": 1,
			"fieldY": 1,
			"wallOrientation": "RIGHT_DOWN"
		}
	],
	"assets": [
		{
			"fieldX": 6,
			"fieldY": 9,
			"res": "TREE",
			"rot": "UP"
		},
		{
			"fieldX": 11,
			"fieldY": 11,
			"res": "RIVER_VERT",
			"rot": "UP"
		},
		{
			"fieldX": 11,
			"fieldY": 12,
			"res": "RIVER_VERT_HOR_RIGHT",
			"rot": "UP"
		},
		{
			"fieldX": 12,
			"fieldY": 12,
			"res": "RIVER_HOR",
			"rot": "UP"
		}
	]
}
