{
    "questionnaireType": "general",
    "questionnaireName": "questionnaire_v01",
    "questionnaireTitle": "Moods",
    "questionnaireId": "94939u4932329329u39u332",
    "questionnaireDescription": "This is the first draft of questionnaire_v01",
    "questionnaireDate": "12.03.2022",
    "questionnaireVersion": 2,
    "answeredQuestions": false,
    "questions": [
      {
        "questionId": 1,
        "questionTime": "",
        "questionType": "open",
        "questionText": {
          "DE": "Wie oft warst du glücklich?",
          "EN": "How many times did you feel happy?"
        },
        "answerHint": {
          "DE": "Bitte nur positive ganze Zahlen",
          "EN": "Please only positive integers"
        },
        "answerOptions": []
      },
      {
        "questionId": 2,
        "questionTime": "",
        "questionType": "slider",
        "questionText": {
          "EN": "How are you feeling right now?",
          "DE": "Wie fühlst du dich gerade?"
  
        },
        "answerOptions": [
          {
            "answerId": 1,
            "value":5,
            "answerText": {
              "DE": "Schlecht",
              "EN": "Bad",
              "DE2": "Gut",
              "EN2": "Good"
  
            }
          }
        ]
      },
      {
        "questionId": 3,
        "questionTime": "",
        "questionType": "free_text",
        "questionText": {
          "DE": "Beschreiben Sie, wie Sie sich gerade fühlen",
          "EN": "Describe how you feel right now!"
        },
        "answerOptions": []
      },
      {
        "questionId": 4,
        "questionTime": "",
        "questionType": "text_selection",
        "questionText": {
          "DE": "Welche der folgenden Erfahrungen hatten Sie heute?",
          "EN": "Which of the following experiences did you have today?"
        },
        "answerOptions": [
  
          {
            "answerId": 1,
            "answerText": {
              "DE": "Positiv",
              "EN": "Positive"
            },
            "question": {
              "questionType": "choice",
              "answerOptions": [
              {
                "answerId": 1,
                "isActive": false,
                "answerText": {
                  "DE": "Erfüllung",
                  "EN": "Achievement"
                }
              },
              {
                "answerId": 2,
                "isActive": false,
                "answerText": {
                  "DE": "Aktiv",
                  "EN": "Active"
                }
              },
              {
                "answerId": 3,
                "isActive": false,
                "answerText": {
                  "DE": "Zuversichtlich",
                  "EN": "Confident"
                }
              },
              {
                "answerId": 4,
                "isActive": false,
                "answerText": {
                  "DE": "Enthusiastisch",
                  "EN": "Enthusiastic"
                }
              },
              {
                "answerId": 5,
                "isActive": false,
                "answerText": {
                  "DE": "Gute Zeit mit anderen",
                  "EN": "Good time with others "
                }
              },
              {
                "answerId": 6,
                "isActive": false,
                "answerText": {
                  "DE": "Glücklich",
                  "EN": "Happy"
                }
              },
              {
                "answerId": 7,
                "isActive": false,
                "answerText": {
                  "DE": "Interessiert",
                  "EN": "Interested"
                }
              },
              {
                "answerId": 8,
                "isActive": false,
                "answerText": {
                  "DE": "Stolz",
                  "EN": "Proud"
                }
              },    {
                "answerId": 9,
                  "isActive": false,
                  "answerText": {
                  "DE": "Entspannt",
                  "EN": "Relaxed"
                }
              },    {
                "answerId": 10,
                  "isActive": false,
                  "answerText": {
                  "DE": "Erleichtert",
                  "EN": "Relived"
                }
              }
            ]
          }
          },
          {
            "answerId": 2,
            "isActive": false,
            "answerText": {
              "DE": "Negativ",
              "EN": "Negative"
            },
            "question": {
              "questionType": "choice",
              "answerOptions": [
              {
                "answerId": 1,
                "isActive": false,
                "answerText": {
                  "DE": "Besorgt",
                  "EN": "Afraid"
                }
              },
              {
                "answerId": 2,
                "isActive": false,
                "answerText": {
                  "DE": "Beschämt",
                  "EN": "Ashamed"
                }
              },
              {
                "answerId": 3,
                "isActive": false,
                "answerText": {
                  "DE": "Konflikt mit jemandem",
                  "EN": "Conflict with someone"
                }
              },
              {
                "answerId": 4,
                "isActive": false,
                "answerText": {
                  "DE": "Leer",
                  "EN": "Empty"
                }
              },
              {
                "answerId": 5,
                "isActive": false,
                "answerText": {
                  "DE": "Schuldig",
                  "EN": "Guilty"
                }
              },
              {
                "answerId": 6,
                "isActive": false,
                "answerText": {
                  "DE": "Einsam",
                  "EN": "Lonely"
                }
              },
              {
                "answerId": 7,
                "isActive": false,
                "answerText": {
                  "DE": "Nervös",
                  "EN": "Nervous"
                }
              },
              {
                "answerId": 8,
                "isActive": false,
                "answerText": {
                  "DE": "Traurig",
                  "EN": "Sad"
                }
              },    {
                "answerId": 9,
                  "isActive": false,
                  "answerText": {
                  "DE": "Müde",
                  "EN": "Tired"
                }
              },    {
                "answerId": 10,
                  "isActive": false,
                  "answerText": {
                  "DE": "Verärgern",
                  "EN": "Upset"
                }
              }
            ]
          }
          }
        ]
      },
      {
        "questionId": 5,
        "questionTime": "",
        "questionType": "image",
        "questionText": {
          "DE": "Welches Bild beschreibt Ihre aktuelle Stimmung am besten?",
          "EN": "Which picture describes your current mood best?"
        },
        "answerOptions": [
          {
            "answerId": 1,
            "isActive": false,
            "answerText": {
              "DE": "depressed",
              "EN": "depressed"
            }
          },
                {
                  "answerId": 2,
                  "isActive": false,
                  "answerText": {
                    "DE": "sad",
                    "EN": "sad"
                  }
                },
                {
                  "answerId": 3,
                  "isActive": false,
                  "answerText": {
                    "DE": "neutral",
                    "EN": "neutral"
                  }
                },
                {
                  "answerId": 4,
                  "isActive": false,
                  "answerText": {
                    "DE": "happy",
                    "EN": "happy"
                  }
                },
                {
                  "answerId": 5,
                  "isActive": false,
                  "answerText": {
                    "DE": "very_happy",
                    "EN": "very_happy"
                  }
                }
              ]
      },
      {
        "questionId": 6,
        "questionTime": "",
        "questionType": "radio",
        "radioValue": 0,
        "questionText": {
          "DE": "Ich bin jemand, der effizient ist und Dinge erledigt",
          "EN": "I am someone who is efficient, gets stuff done"
        },
        "answerOptions": [
          {
            "answerId": 1,
            "isActive": false,
            "answerText": {
              "DE": "Stimme überhaupt nicht zu",
              "EN": "Disagree Strongly"
            }
  
          },
          {
            "answerId": 2,
            "isActive": false,
            "answerText": {
              "DE": "Stimme nicht zu",
              "EN": "Disagree a little"
            }
          },
          {
            "answerId": 3,
            "isActive": false,
            "answerText": {
              "DE": "Stimme weder zu noch nicht zu",
              "EN": "Neutral;no opinion"
            }
          },
          {
            "answerId": 4,
            "isActive": false,
            "answerText": {
              "DE": "Stimme zu",
              "EN": "Agree a little"
            }
          },
  
          {
            "answerId": 5,
            "isActive": false,
            "answerText": {
              "DE": "Stimme völlig zu",
              "EN": "Agree strongly"
            }
          }
  
        ]
      },
      {
        "questionId": 7,
        "questionTime": "",
        "questionType": "choice",
        "questionText": {
          "DE": "Fühlen Sie sich gerade gestresst?",
          "EN": "Are you feeling stressed right now?"
        },
        "answerOptions": [
          {
            "answerId": 1,
            "isActive": false,
            "answerText": {
              "DE": "Ja",
              "EN": "Yes"
            },
            "question": {
              "questionType": "slider",
              "answerOptions": [
                {
                  "answerId": 1,
                  "value":5,
                  "answerText": {
                    "DE": "Ein bisschen",
                    "EN": "A Little",
                    "DE2": "Viel",
                    "EN2": "A Lot"
                  }
                }
  
              ]
            }
          },
          {
            "answerId": 2,
            "isActive": false,
            "answerText": {
              "DE": "Nein",
              "EN": "No"
            }
          }
        ]
      },
      {
        "questionId": 8,
        "questionTime": "",
        "questionType": "follow-up",
        "questionText": {
          "DE": "Sind Sie derzeit in Behandlung?",
          "EN": " Are you currently in treatment?"
        },
        "answerOptions": [
          {
            "answerId": 1,
            "isActive": false,
            "answerText": {
              "DE": "Ja",
              "EN": "Yes",
              "Page": 9
            }
          },
          {
            "answerId": 2,
            "isActive": false,
            "answerText": {
              "DE": "Nein",
              "EN": "No",
              "Page": 10
  
            }
          }
        ]
      },
      {
        "questionId": 9,
        "questionTime": "",
        "questionType": "choice",
        "questionText": {
          "DE": "Wer bezahlt Ihre Behandlung?",
          "EN": "Who pays for your treatment?"
        },
        "answerOptions": [
          {
            "answerId": 1,
            "isActive": false,
            "answerText": {
              "DE": "Versicherung",
              "EN": "Insurance"
            }
          },
          {
            "answerId": 2,
            "isActive": false,
            "answerText": {
              "DE": "Ich selbst",
              "EN": "Myself"
            }
          },
          {
            "answerId": 3,
            "isActive": false,
            "answerText": {
              "DE": "Andere:",
              "EN": "Other:"
            },
            "question": {
              "questionType": "free_text",
              "answerOptions": []
            }
          }
        ]
      },
  
      {
        "questionId": 10,
        "questionTime": "",
        "questionType": "multiple_choice",
        "questionText": {
          "DE": "Wann nehmen Sie Ihre Medikamente?",
          "EN": " When do you take your medication?"
        },
        "answerOptions": [
          {
            "answerId": 1,
            "isActive": false,
            "answerText": {
              "DE": "Morgens",
              "EN": "In the morning"
            }
  
          },
          {
            "answerId": 2,
            "isActive": false,
            "answerText": {
              "DE": "Während der Mittagspause",
              "EN": "During lunchtime"
            }
          },
  
          {
            "answerId": 3,
            "isActive": false,
            "answerText": {
              "DE": "Um die Abendessenszeit",
              "EN": "Around dinnertime"
            }
          }
        ]
      }
  
    ]
  }
  