{
  "questionnaireType": "bfi2",
  "questionnaireVersion": 6,
  "questions": [
    {
      "questionId": 1,
      "questionType": "choice",
      "questionText": {
        "DE": "Ich gehe aus mir heraus, bin gesellig.",
        "EN": "I am someone who is outgoing, sociable."
      },
      "answerOptions": [
        {
          "answerId": 1,
          "answerWeight": 1,
          "answerText": {
            "DE": "Stimme überhaupt nicht zu",
            "EN": "Disagree strongly"
          }
        },
        {
          "answerId": 2,
          "answerWeight": 2,
          "answerText": {
            "DE": "Stimme eher nicht zu",
            "EN": "Disagree a little"
          }
        },
        {
          "answerId": 3,
          "answerWeight": 3,
          "answerText": {
            "DE": "Teils, teils",
            "EN": "Neutral; no opinion"
          }
        },
        {
          "answerId": 4,
          "answerWeight": 4,
          "answerText": {
            "DE": "Stimme eher zu",
            "EN": "Agree a little"
          }
        },
        {
          "answerId": 5,
          "answerWeight": 5,
          "answerText": {
            "DE": "Stimme voll und ganz zu",
            "EN": "Agree strongly"
          }
        }
      ]
    },
    {
      "questionId": 2,
      "questionType": "choice",
      "questionText": {
        "DE": "Ich bin einfühlsam, warmherzig.",
        "EN": "I am someone who is compassionate, has a soft heart."
      },
      "answerOptions": [
        {
          "answerId": 1,
          "answerWeight": 1,
          "answerText": {
            "DE": "Stimme überhaupt nicht zu",
            "EN": "Disagree strongly"
          }
        },
        {
          "answerId": 2,
          "answerWeight": 2,
          "answerText": {
            "DE": "Stimme eher nicht zu",
            "EN": "Disagree a little"
          }
        },
        {
          "answerId": 3,
          "answerWeight": 3,
          "answerText": {
            "DE": "Teils, teils",
            "EN": "Neutral; no opinion"
          }
        },
        {
          "answerId": 4,
          "answerWeight": 4,
          "answerText": {
            "DE": "Stimme eher zu",
            "EN": "Agree a little"
          }
        },
        {
          "answerId": 5,
          "answerWeight": 5,
          "answerText": {
            "DE": "Stimme voll und ganz zu",
            "EN": "Agree strongly"
          }
        }
      ]
    },
    {
      "questionId": 3,
      "questionType": "choice",
      "questionText": {
        "DE": "Ich bin eher unordentlich.",
        "EN": "I am someone who tends to be disorganized."
      },
      "answerOptions": [
        {
          "answerId": 1,
          "answerWeight": 5,
          "answerText": {
            "DE": "Stimme überhaupt nicht zu",
            "EN": "Disagree strongly"
          }
        },
        {
          "answerId": 2,
          "answerWeight": 4,
          "answerText": {
            "DE": "Stimme eher nicht zu",
            "EN": "Disagree a little"
          }
        },
        {
          "answerId": 3,
          "answerWeight": 3,
          "answerText": {
            "DE": "Teils, teils",
            "EN": "Neutral; no opinion"
          }
        },
        {
          "answerId": 4,
          "answerWeight": 2,
          "answerText": {
            "DE": "Stimme eher zu",
            "EN": "Agree a little"
          }
        },
        {
          "answerId": 5,
          "answerWeight": 1,
          "answerText": {
            "DE": "Stimme voll und ganz zu",
            "EN": "Agree strongly"
          }
        }
      ]
    },
    {
      "questionId": 4,
      "questionType": "choice",
      "questionText": {
        "DE": "Ich bleibe auch in stressigen Situationen gelassen.",
        "EN": "I am someone who is relaxed, handles stress well."
      },
      "answerOptions": [
        {
          "answerId": 1,
          "answerWeight": 5,
          "answerText": {
            "DE": "Stimme überhaupt nicht zu",
            "EN": "Disagree strongly"
          }
        },
        {
          "answerId": 2,
          "answerWeight": 4,
          "answerText": {
            "DE": "Stimme eher nicht zu",
            "EN": "Disagree a little"
          }
        },
        {
          "answerId": 3,
          "answerWeight": 3,
          "answerText": {
            "DE": "Teils, teils",
            "EN": "Neutral; no opinion"
          }
        },
        {
          "answerId": 4,
          "answerWeight": 2,
          "answerText": {
            "DE": "Stimme eher zu",
            "EN": "Agree a little"
          }
        },
        {
          "answerId": 5,
          "answerWeight": 1,
          "answerText": {
            "DE": "Stimme voll und ganz zu",
            "EN": "Agree strongly"
          }
        }
      ]
    },
    {
      "questionId": 5,
      "questionType": "choice",
      "questionText": {
        "DE": "Ich bin nicht sonderlich kunstinteressiert.",
        "EN": "I am someone who have few artistic interests."
      },
      "answerOptions": [
        {
          "answerId": 1,
          "answerWeight": 5,
          "answerText": {
            "DE": "Stimme überhaupt nicht zu",
            "EN": "Disagree strongly"
          }
        },
        {
          "answerId": 2,
          "answerWeight": 4,
          "answerText": {
            "DE": "Stimme eher nicht zu",
            "EN": "Disagree a little"
          }
        },
        {
          "answerId": 3,
          "answerWeight": 3,
          "answerText": {
            "DE": "Teils, teils",
            "EN": "Neutral; no opinion"
          }
        },
        {
          "answerId": 4,
          "answerWeight": 2,
          "answerText": {
            "DE": "Stimme eher zu",
            "EN": "Agree a little"
          }
        },
        {
          "answerId": 5,
          "answerWeight": 1,
          "answerText": {
            "DE": "Stimme voll und ganz zu",
            "EN": "Agree strongly"
          }
        }
      ]
    },
    {
      "questionId": 6,
      "questionType": "choice",
      "questionText": {
        "DE": "Ich bin durchsetzungsfähig, energisch.",
        "EN": "I am someone who has an assertive personality."
      },
      "answerOptions": [
        {
          "answerId": 1,
          "answerWeight": 1,
          "answerText": {
            "DE": "Stimme überhaupt nicht zu",
            "EN": "Disagree strongly"
          }
        },
        {
          "answerId": 2,
          "answerWeight": 2,
          "answerText": {
            "DE": "Stimme eher nicht zu",
            "EN": "Disagree a little"
          }
        },
        {
          "answerId": 3,
          "answerWeight": 3,
          "answerText": {
            "DE": "Teils, teils",
            "EN": "Neutral; no opinion"
          }
        },
        {
          "answerId": 4,
          "answerWeight": 4,
          "answerText": {
            "DE": "Stimme eher zu",
            "EN": "Agree a little"
          }
        },
        {
          "answerId": 5,
          "answerWeight": 5,
          "answerText": {
            "DE": "Stimme voll und ganz zu",
            "EN": "Agree strongly"
          }
        }
      ]
    },
    {
      "questionId": 7,
      "questionType": "choice",
      "questionText": {
        "DE": "Ich begegne anderen mit Respekt.",
        "EN": "I am someone who is respectful, treats others with respect."
      },
      "answerOptions": [
        {
          "answerId": 1,
          "answerWeight": 1,
          "answerText": {
            "DE": "Stimme überhaupt nicht zu",
            "EN": "Disagree strongly"
          }
        },
        {
          "answerId": 2,
          "answerWeight": 2,
          "answerText": {
            "DE": "Stimme eher nicht zu",
            "EN": "Disagree a little"
          }
        },
        {
          "answerId": 3,
          "answerWeight": 3,
          "answerText": {
            "DE": "Teils, teils",
            "EN": "Neutral; no opinion"
          }
        },
        {
          "answerId": 4,
          "answerWeight": 4,
          "answerText": {
            "DE": "Stimme eher zu",
            "EN": "Agree a little"
          }
        },
        {
          "answerId": 5,
          "answerWeight": 5,
          "answerText": {
            "DE": "Stimme voll und ganz zu",
            "EN": "Agree strongly"
          }
        }
      ]
    },
    {
      "questionId": 8,
      "questionType": "choice",
      "questionText": {
        "DE": " Ich bin bequem, neige zu Faulheit.",
        "EN": "I am someone who tends to be lazy."
      },
      "answerOptions": [
        {
          "answerId": 1,
          "answerWeight": 5,
          "answerText": {
            "DE": "Stimme überhaupt nicht zu",
            "EN": "Disagree strongly"
          }
        },
        {
          "answerId": 2,
          "answerWeight": 4,
          "answerText": {
            "DE": "Stimme eher nicht zu",
            "EN": "Disagree a little"
          }
        },
        {
          "answerId": 3,
          "answerWeight": 3,
          "answerText": {
            "DE": "Teils, teils",
            "EN": "Neutral; no opinion"
          }
        },
        {
          "answerId": 4,
          "answerWeight": 2,
          "answerText": {
            "DE": "Stimme eher zu",
            "EN": "Agree a little"
          }
        },
        {
          "answerId": 5,
          "answerWeight": 1,
          "answerText": {
            "DE": "Stimme voll und ganz zu",
            "EN": "Agree strongly"
          }
        }
      ]
    },
    {
      "questionId": 9,
      "questionType": "choice",
      "questionText": {
        "DE": "Ich bleibe auch bei Rückschlägen zuversichtlich.",
        "EN": "I am someone who stays optimistic after experiencing a setback."
      },
      "answerOptions": [
        {
          "answerId": 1,
          "answerWeight": 5,
          "answerText": {
            "DE": "Stimme überhaupt nicht zu",
            "EN": "Disagree strongly"
          }
        },
        {
          "answerId": 2,
          "answerWeight": 4,
          "answerText": {
            "DE": "Stimme eher nicht zu",
            "EN": "Disagree a little"
          }
        },
        {
          "answerId": 3,
          "answerWeight": 3,
          "answerText": {
            "DE": "Teils, teils",
            "EN": "Neutral; no opinion"
          }
        },
        {
          "answerId": 4,
          "answerWeight": 2,
          "answerText": {
            "DE": "Stimme eher zu",
            "EN": "Agree a little"
          }
        },
        {
          "answerId": 5,
          "answerWeight": 1,
          "answerText": {
            "DE": "Stimme voll und ganz zu",
            "EN": "Agree strongly"
          }
        }
      ]
    },
    {
      "questionId": 10,
      "questionType": "choice",
      "questionText": {
        "DE": " Ich bin vielseitig interessiert.",
        "EN": "I am someone who is curious about many different things."
      },
      "answerOptions": [
        {
          "answerId": 1,
          "answerWeight": 1,
          "answerText": {
            "DE": "Stimme überhaupt nicht zu",
            "EN": "Disagree strongly"
          }
        },
        {
          "answerId": 2,
          "answerWeight": 2,
          "answerText": {
            "DE": "Stimme eher nicht zu",
            "EN": "Disagree a little"
          }
        },
        {
          "answerId": 3,
          "answerWeight": 3,
          "answerText": {
            "DE": "Teils, teils",
            "EN": "Neutral; no opinion"
          }
        },
        {
          "answerId": 4,
          "answerWeight": 4,
          "answerText": {
            "DE": "Stimme eher zu",
            "EN": "Agree a little"
          }
        },
        {
          "answerId": 5,
          "answerWeight": 5,
          "answerText": {
            "DE": "Stimme voll und ganz zu",
            "EN": "Agree strongly"
          }
        }
      ]
    },
    {
      "questionId": 11,
      "questionType": "choice",
      "questionText": {
        "DE": "Ich schäume selten vor Begeisterung über.",
        "EN": "I am someone who rarely feels excited or eager."
      },
      "answerOptions": [
        {
          "answerId": 1,
          "answerWeight": 5,
          "answerText": {
            "DE": "Stimme überhaupt nicht zu",
            "EN": "Disagree strongly"
          }
        },
        {
          "answerId": 2,
          "answerWeight": 4,
          "answerText": {
            "DE": "Stimme eher nicht zu",
            "EN": "Disagree a little"
          }
        },
        {
          "answerId": 3,
          "answerWeight": 3,
          "answerText": {
            "DE": "Teils, teils",
            "EN": "Neutral; no opinion"
          }
        },
        {
          "answerId": 4,
          "answerWeight": 2,
          "answerText": {
            "DE": "Stimme eher zu",
            "EN": "Agree a little"
          }
        },
        {
          "answerId": 5,
          "answerWeight": 1,
          "answerText": {
            "DE": "Stimme voll und ganz zu",
            "EN": "Agree strongly"
          }
        }
      ]
    },
    {
      "questionId": 12,
      "questionType": "choice",
      "questionText": {
        "DE": " Ich neige dazu, andere zu kritisieren.",
        "EN": "I am someone who tends to find fault with others."
      },
      "answerOptions": [
        {
          "answerId": 1,
          "answerWeight": 5,
          "answerText": {
            "DE": "Stimme überhaupt nicht zu",
            "EN": "Disagree strongly"
          }
        },
        {
          "answerId": 2,
          "answerWeight": 4,
          "answerText": {
            "DE": "Stimme eher nicht zu",
            "EN": "Disagree a little"
          }
        },
        {
          "answerId": 3,
          "answerWeight": 3,
          "answerText": {
            "DE": "Teils, teils",
            "EN": "Neutral; no opinion"
          }
        },
        {
          "answerId": 4,
          "answerWeight": 2,
          "answerText": {
            "DE": "Stimme eher zu",
            "EN": "Agree a little"
          }
        },
        {
          "answerId": 5,
          "answerWeight": 1,
          "answerText": {
            "DE": "Stimme voll und ganz zu",
            "EN": "Agree strongly"
          }
        }
      ]
    },
    {
      "questionId": 13,
      "questionType": "choice",
      "questionText": {
        "DE": "Ich bin stetig, beständig.",
        "EN": "I am someone who is dependable, steady."
      },
      "answerOptions": [
        {
          "answerId": 1,
          "answerWeight": 1,
          "answerText": {
            "DE": "Stimme überhaupt nicht zu",
            "EN": "Disagree strongly"
          }
        },
        {
          "answerId": 2,
          "answerWeight": 2,
          "answerText": {
            "DE": "Stimme eher nicht zu",
            "EN": "Disagree a little"
          }
        },
        {
          "answerId": 3,
          "answerWeight": 3,
          "answerText": {
            "DE": "Teils, teils",
            "EN": "Neutral; no opinion"
          }
        },
        {
          "answerId": 4,
          "answerWeight": 4,
          "answerText": {
            "DE": "Stimme eher zu",
            "EN": "Agree a little"
          }
        },
        {
          "answerId": 5,
          "answerWeight": 5,
          "answerText": {
            "DE": "Stimme voll und ganz zu",
            "EN": "Agree strongly"
          }
        }
      ]
    },
    {
      "questionId": 14,
      "questionType": "choice",
      "questionText": {
        "DE": "Ich kann launisch sein, habe schwankende Stimmungen.",
        "EN": "I am someone who is moody, has up and down mood swings."
      },
      "answerOptions": [
        {
          "answerId": 1,
          "answerWeight": 1,
          "answerText": {
            "DE": "Stimme überhaupt nicht zu",
            "EN": "Disagree strongly"
          }
        },
        {
          "answerId": 2,
          "answerWeight": 2,
          "answerText": {
            "DE": "Stimme eher nicht zu",
            "EN": "Disagree a little"
          }
        },
        {
          "answerId": 3,
          "answerWeight": 3,
          "answerText": {
            "DE": "Teils, teils",
            "EN": "Neutral; no opinion"
          }
        },
        {
          "answerId": 4,
          "answerWeight": 4,
          "answerText": {
            "DE": "Stimme eher zu",
            "EN": "Agree a little"
          }
        },
        {
          "answerId": 5,
          "answerWeight": 5,
          "answerText": {
            "DE": "Stimme voll und ganz zu",
            "EN": "Agree strongly"
          }
        }
      ]
    },
    {
      "questionId": 15,
      "questionType": "choice",
      "questionText": {
        "DE": "Ich bin erfinderisch, mir fallen raffinierte Lösungen ein.",
        "EN": "I am someone who is inventive, finds clever ways to do things."
      },
      "answerOptions": [
        {
          "answerId": 1,
          "answerWeight": 1,
          "answerText": {
            "DE": "Stimme überhaupt nicht zu",
            "EN": "Disagree strongly"
          }
        },
        {
          "answerId": 2,
          "answerWeight": 2,
          "answerText": {
            "DE": "Stimme eher nicht zu",
            "EN": "Disagree a little"
          }
        },
        {
          "answerId": 3,
          "answerWeight": 3,
          "answerText": {
            "DE": "Teils, teils",
            "EN": "Neutral; no opinion"
          }
        },
        {
          "answerId": 4,
          "answerWeight": 4,
          "answerText": {
            "DE": "Stimme eher zu",
            "EN": "Agree a little"
          }
        },
        {
          "answerId": 5,
          "answerWeight": 5,
          "answerText": {
            "DE": "Stimme voll und ganz zu",
            "EN": "Agree strongly"
          }
        }
      ]
    },
    {
      "questionId": 16,
      "questionType": "choice",
      "questionText": {
        "DE": "Ich bin eher ruhig.",
        "EN": "I am someone who tends to be quiet."
      },
      "answerOptions": [
        {
          "answerId": 1,
          "answerWeight": 5,
          "answerText": {
            "DE": "Stimme überhaupt nicht zu",
            "EN": "Disagree strongly"
          }
        },
        {
          "answerId": 2,
          "answerWeight": 4,
          "answerText": {
            "DE": "Stimme eher nicht zu",
            "EN": "Disagree a little"
          }
        },
        {
          "answerId": 3,
          "answerWeight": 3,
          "answerText": {
            "DE": "Teils, teils",
            "EN": "Neutral; no opinion"
          }
        },
        {
          "answerId": 4,
          "answerWeight": 2,
          "answerText": {
            "DE": "Stimme eher zu",
            "EN": "Agree a little"
          }
        },
        {
          "answerId": 5,
          "answerWeight": 1,
          "answerText": {
            "DE": "Stimme voll und ganz zu",
            "EN": "Agree strongly"
          }
        }
      ]
    },
    {
      "questionId": 17,
      "questionType": "choice",
      "questionText": {
        "DE": " Ich habe mit anderen wenig Mitgefühl.",
        "EN": "I am someone who feels little sympathy for others."
      },
      "answerOptions": [
        {
          "answerId": 1,
          "answerWeight": 5,
          "answerText": {
            "DE": "Stimme überhaupt nicht zu",
            "EN": "Disagree strongly"
          }
        },
        {
          "answerId": 2,
          "answerWeight": 4,
          "answerText": {
            "DE": "Stimme eher nicht zu",
            "EN": "Disagree a little"
          }
        },
        {
          "answerId": 3,
          "answerWeight": 3,
          "answerText": {
            "DE": "Teils, teils",
            "EN": "Neutral; no opinion"
          }
        },
        {
          "answerId": 4,
          "answerWeight": 2,
          "answerText": {
            "DE": "Stimme eher zu",
            "EN": "Agree a little"
          }
        },
        {
          "answerId": 5,
          "answerWeight": 1,
          "answerText": {
            "DE": "Stimme voll und ganz zu",
            "EN": "Agree strongly"
          }
        }
      ]
    },
    {
      "questionId": 18,
      "questionType": "choice",
      "questionText": {
        "DE": "Ich bin systematisch, halte meine Sachen in Ordnung.",
        "EN": "I am someone who is systematic, likes to keep things in order."
      },
      "answerOptions": [
        {
          "answerId": 1,
          "answerWeight": 1,
          "answerText": {
            "DE": "Stimme überhaupt nicht zu",
            "EN": "Disagree strongly"
          }
        },
        {
          "answerId": 2,
          "answerWeight": 2,
          "answerText": {
            "DE": "Stimme eher nicht zu",
            "EN": "Disagree a little"
          }
        },
        {
          "answerId": 3,
          "answerWeight": 3,
          "answerText": {
            "DE": "Teils, teils",
            "EN": "Neutral; no opinion"
          }
        },
        {
          "answerId": 4,
          "answerWeight": 4,
          "answerText": {
            "DE": "Stimme eher zu",
            "EN": "Agree a little"
          }
        },
        {
          "answerId": 5,
          "answerWeight": 5,
          "answerText": {
            "DE": "Stimme voll und ganz zu",
            "EN": "Agree strongly"
          }
        }
      ]
    },
    {
      "questionId": 19,
      "questionType": "choice",
      "questionText": {
        "DE": "Ich reagiere leicht angespannt.",
        "EN": "I am someone who can be tense."
      },
      "answerOptions": [
        {
          "answerId": 1,
          "answerWeight": 1,
          "answerText": {
            "DE": "Stimme überhaupt nicht zu",
            "EN": "Disagree strongly"
          }
        },
        {
          "answerId": 2,
          "answerWeight": 2,
          "answerText": {
            "DE": "Stimme eher nicht zu",
            "EN": "Disagree a little"
          }
        },
        {
          "answerId": 3,
          "answerWeight": 3,
          "answerText": {
            "DE": "Teils, teils",
            "EN": "Neutral; no opinion"
          }
        },
        {
          "answerId": 4,
          "answerWeight": 4,
          "answerText": {
            "DE": "Stimme eher zu",
            "EN": "Agree a little"
          }
        },
        {
          "answerId": 5,
          "answerWeight": 5,
          "answerText": {
            "DE": "Stimme voll und ganz zu",
            "EN": "Agree strongly"
          }
        }
      ]
    },
    {
      "questionId": 20,
      "questionType": "choice",
      "questionText": {
        "DE": "Ich kann mich für Kunst, Musik und Literatur begeistern.",
        "EN": "I am someone who is fascinated by art, music, or literature."
      },
      "answerOptions": [
        {
          "answerId": 1,
          "answerWeight": 1,
          "answerText": {
            "DE": "Stimme überhaupt nicht zu",
            "EN": "Disagree strongly"
          }
        },
        {
          "answerId": 2,
          "answerWeight": 2,
          "answerText": {
            "DE": "Stimme eher nicht zu",
            "EN": "Disagree a little"
          }
        },
        {
          "answerId": 3,
          "answerWeight": 3,
          "answerText": {
            "DE": "Teils, teils",
            "EN": "Neutral; no opinion"
          }
        },
        {
          "answerId": 4,
          "answerWeight": 4,
          "answerText": {
            "DE": "Stimme eher zu",
            "EN": "Agree a little"
          }
        },
        {
          "answerId": 5,
          "answerWeight": 5,
          "answerText": {
            "DE": "Stimme voll und ganz zu",
            "EN": "Agree strongly"
          }
        }
      ]
    },
    {
      "questionId": 21,
      "questionType": "choice",
      "questionText": {
        "DE": "Ich neige dazu, die Führung zu übernehmen.",
        "EN": "I am someone who is dominant, acts as a leader."
      },
      "answerOptions": [
        {
          "answerId": 1,
          "answerWeight": 1,
          "answerText": {
            "DE": "Stimme überhaupt nicht zu",
            "EN": "Disagree strongly"
          }
        },
        {
          "answerId": 2,
          "answerWeight": 2,
          "answerText": {
            "DE": "Stimme eher nicht zu",
            "EN": "Disagree a little"
          }
        },
        {
          "answerId": 3,
          "answerWeight": 3,
          "answerText": {
            "DE": "Teils, teils",
            "EN": "Neutral; no opinion"
          }
        },
        {
          "answerId": 4,
          "answerWeight": 4,
          "answerText": {
            "DE": "Stimme eher zu",
            "EN": "Agree a little"
          }
        },
        {
          "answerId": 5,
          "answerWeight": 5,
          "answerText": {
            "DE": "Stimme voll und ganz zu",
            "EN": "Agree strongly"
          }
        }
      ]
    },
    {
      "questionId": 22,
      "questionType": "choice",
      "questionText": {
        "DE": "Ich habe oft Streit mit anderen.",
        "EN": "I am someone who starts arguments with others."
      },
      "answerOptions": [
        {
          "answerId": 1,
          "answerWeight": 5,
          "answerText": {
            "DE": "Stimme überhaupt nicht zu",
            "EN": "Disagree strongly"
          }
        },
        {
          "answerId": 2,
          "answerWeight": 4,
          "answerText": {
            "DE": "Stimme eher nicht zu",
            "EN": "Disagree a little"
          }
        },
        {
          "answerId": 3,
          "answerWeight": 3,
          "answerText": {
            "DE": "Teils, teils",
            "EN": "Neutral; no opinion"
          }
        },
        {
          "answerId": 4,
          "answerWeight": 2,
          "answerText": {
            "DE": "Stimme eher zu",
            "EN": "Agree a little"
          }
        },
        {
          "answerId": 5,
          "answerWeight": 1,
          "answerText": {
            "DE": "Stimme voll und ganz zu",
            "EN": "Agree strongly"
          }
        }
      ]
    },
    {
      "questionId": 23,
      "questionType": "choice",
      "questionText": {
        "DE": "Ich neige dazu, Aufgaben vor mir herzuschieben.",
        "EN": "I am someone who has difficulty getting started on tasks."
      },
      "answerOptions": [
        {
          "answerId": 1,
          "answerWeight": 5,
          "answerText": {
            "DE": "Stimme überhaupt nicht zu",
            "EN": "Disagree strongly"
          }
        },
        {
          "answerId": 2,
          "answerWeight": 4,
          "answerText": {
            "DE": "Stimme eher nicht zu",
            "EN": "Disagree a little"
          }
        },
        {
          "answerId": 3,
          "answerWeight": 3,
          "answerText": {
            "DE": "Teils, teils",
            "EN": "Neutral; no opinion"
          }
        },
        {
          "answerId": 4,
          "answerWeight": 2,
          "answerText": {
            "DE": "Stimme eher zu",
            "EN": "Agree a little"
          }
        },
        {
          "answerId": 5,
          "answerWeight": 1,
          "answerText": {
            "DE": "Stimme voll und ganz zu",
            "EN": "Agree strongly"
          }
        }
      ]
    },
    {
      "questionId": 24,
      "questionType": "choice",
      "questionText": {
        "DE": "Ich bin selbstsicher, mit mir zufrieden.",
        "EN": "I am someone who feels secure, comfortable with self."
      },
      "answerOptions": [
        {
          "answerId": 1,
          "answerWeight": 5,
          "answerText": {
            "DE": "Stimme überhaupt nicht zu",
            "EN": "Disagree strongly"
          }
        },
        {
          "answerId": 2,
          "answerWeight": 4,
          "answerText": {
            "DE": "Stimme eher nicht zu",
            "EN": "Disagree a little"
          }
        },
        {
          "answerId": 3,
          "answerWeight": 3,
          "answerText": {
            "DE": "Teils, teils",
            "EN": "Neutral; no opinion"
          }
        },
        {
          "answerId": 4,
          "answerWeight": 2,
          "answerText": {
            "DE": "Stimme eher zu",
            "EN": "Agree a little"
          }
        },
        {
          "answerId": 5,
          "answerWeight": 1,
          "answerText": {
            "DE": "Stimme voll und ganz zu",
            "EN": "Agree strongly"
          }
        }
      ]
    },
    {
      "questionId": 25,
      "questionType": "choice",
      "questionText": {
        "DE": "Ich meide philosophische Diskussionen.",
        "EN": "I am someone who avoids intellectual, philosophical discussions."
      },
      "answerOptions": [
        {
          "answerId": 1,
          "answerWeight": 5,
          "answerText": {
            "DE": "Stimme überhaupt nicht zu",
            "EN": "Disagree strongly"
          }
        },
        {
          "answerId": 2,
          "answerWeight": 4,
          "answerText": {
            "DE": "Stimme eher nicht zu",
            "EN": "Disagree a little"
          }
        },
        {
          "answerId": 3,
          "answerWeight": 3,
          "answerText": {
            "DE": "Teils, teils",
            "EN": "Neutral; no opinion"
          }
        },
        {
          "answerId": 4,
          "answerWeight": 2,
          "answerText": {
            "DE": "Stimme eher zu",
            "EN": "Agree a little"
          }
        },
        {
          "answerId": 5,
          "answerWeight": 1,
          "answerText": {
            "DE": "Stimme voll und ganz zu",
            "EN": "Agree strongly"
          }
        }
      ]
    },
    {
      "questionId": 26,
      "questionType": "choice",
      "questionText": {
        "DE": "Ich bin weniger aktiv und unternehmungslustig als andere.",
        "EN": "I am someone who is less active than other people."
      },
      "answerOptions": [
        {
          "answerId": 1,
          "answerWeight": 5,
          "answerText": {
            "DE": "Stimme überhaupt nicht zu",
            "EN": "Disagree strongly"
          }
        },
        {
          "answerId": 2,
          "answerWeight": 4,
          "answerText": {
            "DE": "Stimme eher nicht zu",
            "EN": "Disagree a little"
          }
        },
        {
          "answerId": 3,
          "answerWeight": 3,
          "answerText": {
            "DE": "Teils, teils",
            "EN": "Neutral; no opinion"
          }
        },
        {
          "answerId": 4,
          "answerWeight": 2,
          "answerText": {
            "DE": "Stimme eher zu",
            "EN": "Agree a little"
          }
        },
        {
          "answerId": 5,
          "answerWeight": 1,
          "answerText": {
            "DE": "Stimme voll und ganz zu",
            "EN": "Agree strongly"
          }
        }
      ]
    },
    {
      "questionId": 27,
      "questionType": "choice",
      "questionText": {
        "DE": "Ich bin nachsichtig, vergebe anderen leicht.",
        "EN": "I am someone who has a forgiving nature."
      },
      "answerOptions": [
        {
          "answerId": 1,
          "answerWeight": 1,
          "answerText": {
            "DE": "Stimme überhaupt nicht zu",
            "EN": "Disagree strongly"
          }
        },
        {
          "answerId": 2,
          "answerWeight": 2,
          "answerText": {
            "DE": "Stimme eher nicht zu",
            "EN": "Disagree a little"
          }
        },
        {
          "answerId": 3,
          "answerWeight": 3,
          "answerText": {
            "DE": "Teils, teils",
            "EN": "Neutral; no opinion"
          }
        },
        {
          "answerId": 4,
          "answerWeight": 4,
          "answerText": {
            "DE": "Stimme eher zu",
            "EN": "Agree a little"
          }
        },
        {
          "answerId": 5,
          "answerWeight": 5,
          "answerText": {
            "DE": "Stimme voll und ganz zu",
            "EN": "Agree strongly"
          }
        }
      ]
    },
    {
      "questionId": 28,
      "questionType": "choice",
      "questionText": {
        "DE": " Ich bin manchmal ziemlich nachlässig.",
        "EN": "I am someone who can be somewhat careless."
      },
      "answerOptions": [
        {
          "answerId": 1,
          "answerWeight": 5,
          "answerText": {
            "DE": "Stimme überhaupt nicht zu",
            "EN": "Disagree strongly"
          }
        },
        {
          "answerId": 2,
          "answerWeight": 4,
          "answerText": {
            "DE": "Stimme eher nicht zu",
            "EN": "Disagree a little"
          }
        },
        {
          "answerId": 3,
          "answerWeight": 3,
          "answerText": {
            "DE": "Teils, teils",
            "EN": "Neutral; no opinion"
          }
        },
        {
          "answerId": 4,
          "answerWeight": 2,
          "answerText": {
            "DE": "Stimme eher zu",
            "EN": "Agree a little"
          }
        },
        {
          "answerId": 5,
          "answerWeight": 1,
          "answerText": {
            "DE": "Stimme voll und ganz zu",
            "EN": "Agree strongly"
          }
        }
      ]
    },
    {
      "questionId": 29,
      "questionType": "choice",
      "questionText": {
        "DE": "Ich bin ausgeglichen, nicht leicht aus der Ruhe zu bringen.",
        "EN": "I am someone who is emotionally stable, not easily upset."
      },
      "answerOptions": [
        {
          "answerId": 1,
          "answerWeight": 5,
          "answerText": {
            "DE": "Stimme überhaupt nicht zu",
            "EN": "Disagree strongly"
          }
        },
        {
          "answerId": 2,
          "answerWeight": 4,
          "answerText": {
            "DE": "Stimme eher nicht zu",
            "EN": "Disagree a little"
          }
        },
        {
          "answerId": 3,
          "answerWeight": 3,
          "answerText": {
            "DE": "Teils, teils",
            "EN": "Neutral; no opinion"
          }
        },
        {
          "answerId": 4,
          "answerWeight": 2,
          "answerText": {
            "DE": "Stimme eher zu",
            "EN": "Agree a little"
          }
        },
        {
          "answerId": 5,
          "answerWeight": 1,
          "answerText": {
            "DE": "Stimme voll und ganz zu",
            "EN": "Agree strongly"
          }
        }
      ]
    },
    {
      "questionId": 30,
      "questionType": "choice",
      "questionText": {
        "DE": "Ich bin nicht besonders einfallsreich.",
        "EN": "I am someone who has little creativity."
      },
      "answerOptions": [
        {
          "answerId": 1,
          "answerWeight": 5,
          "answerText": {
            "DE": "Stimme überhaupt nicht zu",
            "EN": "Disagree strongly"
          }
        },
        {
          "answerId": 2,
          "answerWeight": 4,
          "answerText": {
            "DE": "Stimme eher nicht zu",
            "EN": "Disagree a little"
          }
        },
        {
          "answerId": 3,
          "answerWeight": 3,
          "answerText": {
            "DE": "Teils, teils",
            "EN": "Neutral; no opinion"
          }
        },
        {
          "answerId": 4,
          "answerWeight": 2,
          "answerText": {
            "DE": "Stimme eher zu",
            "EN": "Agree a little"
          }
        },
        {
          "answerId": 5,
          "answerWeight": 1,
          "answerText": {
            "DE": "Stimme voll und ganz zu",
            "EN": "Agree strongly"
          }
        }
      ]
    },
    {
      "questionId": 31,
      "questionType": "choice",
      "questionText": {
        "DE": "Ich bin eher schüchtern.",
        "EN": "I am someone who is sometimes shy, introverted."
      },
      "answerOptions": [
        {
          "answerId": 1,
          "answerWeight": 5,
          "answerText": {
            "DE": "Stimme überhaupt nicht zu",
            "EN": "Disagree strongly"
          }
        },
        {
          "answerId": 2,
          "answerWeight": 4,
          "answerText": {
            "DE": "Stimme eher nicht zu",
            "EN": "Disagree a little"
          }
        },
        {
          "answerId": 3,
          "answerWeight": 3,
          "answerText": {
            "DE": "Teils, teils",
            "EN": "Neutral; no opinion"
          }
        },
        {
          "answerId": 4,
          "answerWeight": 2,
          "answerText": {
            "DE": "Stimme eher zu",
            "EN": "Agree a little"
          }
        },
        {
          "answerId": 5,
          "answerWeight": 1,
          "answerText": {
            "DE": "Stimme voll und ganz zu",
            "EN": "Agree strongly"
          }
        }
      ]
    },
    {
      "questionId": 32,
      "questionType": "choice",
      "questionText": {
        "DE": "Ich bin hilfsbereit und selbstlos.",
        "EN": "I am someone who is helpful and unselfish with others."
      },
      "answerOptions": [
        {
          "answerId": 1,
          "answerWeight": 1,
          "answerText": {
            "DE": "Stimme überhaupt nicht zu",
            "EN": "Disagree strongly"
          }
        },
        {
          "answerId": 2,
          "answerWeight": 2,
          "answerText": {
            "DE": "Stimme eher nicht zu",
            "EN": "Disagree a little"
          }
        },
        {
          "answerId": 3,
          "answerWeight": 3,
          "answerText": {
            "DE": "Teils, teils",
            "EN": "Neutral; no opinion"
          }
        },
        {
          "answerId": 4,
          "answerWeight": 4,
          "answerText": {
            "DE": "Stimme eher zu",
            "EN": "Agree a little"
          }
        },
        {
          "answerId": 5,
          "answerWeight": 5,
          "answerText": {
            "DE": "Stimme voll und ganz zu",
            "EN": "Agree strongly"
          }
        }
      ]
    },
    {
      "questionId": 33,
      "questionType": "choice",
      "questionText": {
        "DE": "Ich mag es sauber und aufgeräumt.",
        "EN": "I am someone who keeps things neat and tidy."
      },
      "answerOptions": [
        {
          "answerId": 1,
          "answerWeight": 1,
          "answerText": {
            "DE": "Stimme überhaupt nicht zu",
            "EN": "Disagree strongly"
          }
        },
        {
          "answerId": 2,
          "answerWeight": 2,
          "answerText": {
            "DE": "Stimme eher nicht zu",
            "EN": "Disagree a little"
          }
        },
        {
          "answerId": 3,
          "answerWeight": 3,
          "answerText": {
            "DE": "Teils, teils",
            "EN": "Neutral; no opinion"
          }
        },
        {
          "answerId": 4,
          "answerWeight": 4,
          "answerText": {
            "DE": "Stimme eher zu",
            "EN": "Agree a little"
          }
        },
        {
          "answerId": 5,
          "answerWeight": 5,
          "answerText": {
            "DE": "Stimme voll und ganz zu",
            "EN": "Agree strongly"
          }
        }
      ]
    },
    {
      "questionId": 34,
      "questionType": "choice",
      "questionText": {
        "DE": "Ich mache mir oft Sorgen.",
        "EN": "I am someone who worries a lot."
      },
      "answerOptions": [
        {
          "answerId": 1,
          "answerWeight": 1,
          "answerText": {
            "DE": "Stimme überhaupt nicht zu",
            "EN": "Disagree strongly"
          }
        },
        {
          "answerId": 2,
          "answerWeight": 2,
          "answerText": {
            "DE": "Stimme eher nicht zu",
            "EN": "Disagree a little"
          }
        },
        {
          "answerId": 3,
          "answerWeight": 3,
          "answerText": {
            "DE": "Teils, teils",
            "EN": "Neutral; no opinion"
          }
        },
        {
          "answerId": 4,
          "answerWeight": 4,
          "answerText": {
            "DE": "Stimme eher zu",
            "EN": "Agree a little"
          }
        },
        {
          "answerId": 5,
          "answerWeight": 5,
          "answerText": {
            "DE": "Stimme voll und ganz zu",
            "EN": "Agree strongly"
          }
        }
      ]
    },
    {
      "questionId": 35,
      "questionType": "choice",
      "questionText": {
        "DE": " Ich weiß Kunst und Schönheit zu schätzen.",
        "EN": "I am someone who values art and beauty."
      },
      "answerOptions": [
        {
          "answerId": 1,
          "answerWeight": 1,
          "answerText": {
            "DE": "Stimme überhaupt nicht zu",
            "EN": "Disagree strongly"
          }
        },
        {
          "answerId": 2,
          "answerWeight": 2,
          "answerText": {
            "DE": "Stimme eher nicht zu",
            "EN": "Disagree a little"
          }
        },
        {
          "answerId": 3,
          "answerWeight": 3,
          "answerText": {
            "DE": "Teils, teils",
            "EN": "Neutral; no opinion"
          }
        },
        {
          "answerId": 4,
          "answerWeight": 4,
          "answerText": {
            "DE": "Stimme eher zu",
            "EN": "Agree a little"
          }
        },
        {
          "answerId": 5,
          "answerWeight": 5,
          "answerText": {
            "DE": "Stimme voll und ganz zu",
            "EN": "Agree strongly"
          }
        }
      ]
    },
    {
      "questionId": 36,
      "questionType": "choice",
      "questionText": {
        "DE": "Mir fällt es schwer, andere zu beeinflussen.",
        "EN": "I am someone who finds it hard to influence people."
      },
      "answerOptions": [
        {
          "answerId": 1,
          "answerWeight": 5,
          "answerText": {
            "DE": "Stimme überhaupt nicht zu",
            "EN": "Disagree strongly"
          }
        },
        {
          "answerId": 2,
          "answerWeight": 4,
          "answerText": {
            "DE": "Stimme eher nicht zu",
            "EN": "Disagree a little"
          }
        },
        {
          "answerId": 3,
          "answerWeight": 3,
          "answerText": {
            "DE": "Teils, teils",
            "EN": "Neutral; no opinion"
          }
        },
        {
          "answerId": 4,
          "answerWeight": 2,
          "answerText": {
            "DE": "Stimme eher zu",
            "EN": "Agree a little"
          }
        },
        {
          "answerId": 5,
          "answerWeight": 1,
          "answerText": {
            "DE": "Stimme voll und ganz zu",
            "EN": "Agree strongly"
          }
        }
      ]
    },
    {
      "questionId": 37,
      "questionType": "choice",
      "questionText": {
        "DE": " Ich bin manchmal unhöflich und schroff.",
        "EN": "I am someone who is sometimes rude to others."
      },
      "answerOptions": [
        {
          "answerId": 1,
          "answerWeight": 5,
          "answerText": {
            "DE": "Stimme überhaupt nicht zu",
            "EN": "Disagree strongly"
          }
        },
        {
          "answerId": 2,
          "answerWeight": 4,
          "answerText": {
            "DE": "Stimme eher nicht zu",
            "EN": "Disagree a little"
          }
        },
        {
          "answerId": 3,
          "answerWeight": 3,
          "answerText": {
            "DE": "Teils, teils",
            "EN": "Neutral; no opinion"
          }
        },
        {
          "answerId": 4,
          "answerWeight": 2,
          "answerText": {
            "DE": "Stimme eher zu",
            "EN": "Agree a little"
          }
        },
        {
          "answerId": 5,
          "answerWeight": 1,
          "answerText": {
            "DE": "Stimme voll und ganz zu",
            "EN": "Agree strongly"
          }
        }
      ]
    },
    {
      "questionId": 38,
      "questionType": "choice",
      "questionText": {
        "DE": "Ich bin effizient, erledige Dinge schnell.",
        "EN": "I am someone who is efficient, gets things done."
      },
      "answerOptions": [
        {
          "answerId": 1,
          "answerWeight": 1,
          "answerText": {
            "DE": "Stimme überhaupt nicht zu",
            "EN": "Disagree strongly"
          }
        },
        {
          "answerId": 2,
          "answerWeight": 2,
          "answerText": {
            "DE": "Stimme eher nicht zu",
            "EN": "Disagree a little"
          }
        },
        {
          "answerId": 3,
          "answerWeight": 3,
          "answerText": {
            "DE": "Teils, teils",
            "EN": "Neutral; no opinion"
          }
        },
        {
          "answerId": 4,
          "answerWeight": 4,
          "answerText": {
            "DE": "Stimme eher zu",
            "EN": "Agree a little"
          }
        },
        {
          "answerId": 5,
          "answerWeight": 5,
          "answerText": {
            "DE": "Stimme voll und ganz zu",
            "EN": "Agree strongly"
          }
        }
      ]
    },
    {
      "questionId": 39,
      "questionType": "choice",
      "questionText": {
        "DE": "Ich fühle mich oft bedrückt, freudlos.",
        "EN": "I am someone who often feels sad."
      },
      "answerOptions": [
        {
          "answerId": 1,
          "answerWeight": 1,
          "answerText": {
            "DE": "Stimme überhaupt nicht zu",
            "EN": "Disagree strongly"
          }
        },
        {
          "answerId": 2,
          "answerWeight": 2,
          "answerText": {
            "DE": "Stimme eher nicht zu",
            "EN": "Disagree a little"
          }
        },
        {
          "answerId": 3,
          "answerWeight": 3,
          "answerText": {
            "DE": "Teils, teils",
            "EN": "Neutral; no opinion"
          }
        },
        {
          "answerId": 4,
          "answerWeight": 4,
          "answerText": {
            "DE": "Stimme eher zu",
            "EN": "Agree a little"
          }
        },
        {
          "answerId": 5,
          "answerWeight": 5,
          "answerText": {
            "DE": "Stimme voll und ganz zu",
            "EN": "Agree strongly"
          }
        }
      ]
    },
    {
      "questionId": 40,
      "questionType": "choice",
      "questionText": {
        "DE": "Es macht mir Spaß, gründlich über komplexe Dinge nachzudenken und sie zu verstehen.",
        "EN": "I am someone who is complex, a deep thinker."
      },
      "answerOptions": [
        {
          "answerId": 1,
          "answerWeight": 1,
          "answerText": {
            "DE": "Stimme überhaupt nicht zu",
            "EN": "Disagree strongly"
          }
        },
        {
          "answerId": 2,
          "answerWeight": 2,
          "answerText": {
            "DE": "Stimme eher nicht zu",
            "EN": "Disagree a little"
          }
        },
        {
          "answerId": 3,
          "answerWeight": 3,
          "answerText": {
            "DE": "Teils, teils",
            "EN": "Neutral; no opinion"
          }
        },
        {
          "answerId": 4,
          "answerWeight": 4,
          "answerText": {
            "DE": "Stimme eher zu",
            "EN": "Agree a little"
          }
        },
        {
          "answerId": 5,
          "answerWeight": 5,
          "answerText": {
            "DE": "Stimme voll und ganz zu",
            "EN": "Agree strongly"
          }
        }
      ]
    },
    {
      "questionId": 41,
      "questionType": "choice",
      "questionText": {
        "DE": "Ich bin voller Energie und Tatendrang.",
        "EN": "I am someone who is full of energy."
      },
      "answerOptions": [
        {
          "answerId": 1,
          "answerWeight": 1,
          "answerText": {
            "DE": "Stimme überhaupt nicht zu",
            "EN": "Disagree strongly"
          }
        },
        {
          "answerId": 2,
          "answerWeight": 2,
          "answerText": {
            "DE": "Stimme eher nicht zu",
            "EN": "Disagree a little"
          }
        },
        {
          "answerId": 3,
          "answerWeight": 3,
          "answerText": {
            "DE": "Teils, teils",
            "EN": "Neutral; no opinion"
          }
        },
        {
          "answerId": 4,
          "answerWeight": 4,
          "answerText": {
            "DE": "Stimme eher zu",
            "EN": "Agree a little"
          }
        },
        {
          "answerId": 5,
          "answerWeight": 5,
          "answerText": {
            "DE": "Stimme voll und ganz zu",
            "EN": "Agree strongly"
          }
        }
      ]
    },
    {
      "questionId": 42,
      "questionType": "choice",
      "questionText": {
        "DE": "Ich bin anderen gegenüber misstrauisch.",
        "EN": "I am someone who is suspicious of others' intentions."
      },
      "answerOptions": [
        {
          "answerId": 1,
          "answerWeight": 5,
          "answerText": {
            "DE": "Stimme überhaupt nicht zu",
            "EN": "Disagree strongly"
          }
        },
        {
          "answerId": 2,
          "answerWeight": 4,
          "answerText": {
            "DE": "Stimme eher nicht zu",
            "EN": "Disagree a little"
          }
        },
        {
          "answerId": 3,
          "answerWeight": 3,
          "answerText": {
            "DE": "Teils, teils",
            "EN": "Neutral; no opinion"
          }
        },
        {
          "answerId": 4,
          "answerWeight": 2,
          "answerText": {
            "DE": "Stimme eher zu",
            "EN": "Agree a little"
          }
        },
        {
          "answerId": 5,
          "answerWeight": 1,
          "answerText": {
            "DE": "Stimme voll und ganz zu",
            "EN": "Agree strongly"
          }
        }
      ]
    },
    {
      "questionId": 43,
      "questionType": "choice",
      "questionText": {
        "DE": "Ich bin verlässlich, auf mich kann man zählen.",
        "EN": "I am someone who is reliable, can always be counted on."
      },
      "answerOptions": [
        {
          "answerId": 1,
          "answerWeight": 1,
          "answerText": {
            "DE": "Stimme überhaupt nicht zu",
            "EN": "Disagree strongly"
          }
        },
        {
          "answerId": 2,
          "answerWeight": 2,
          "answerText": {
            "DE": "Stimme eher nicht zu",
            "EN": "Disagree a little"
          }
        },
        {
          "answerId": 3,
          "answerWeight": 3,
          "answerText": {
            "DE": "Teils, teils",
            "EN": "Neutral; no opinion"
          }
        },
        {
          "answerId": 4,
          "answerWeight": 4,
          "answerText": {
            "DE": "Stimme eher zu",
            "EN": "Agree a little"
          }
        },
        {
          "answerId": 5,
          "answerWeight": 5,
          "answerText": {
            "DE": "Stimme voll und ganz zu",
            "EN": "Agree strongly"
          }
        }
      ]
    },
    {
      "questionId": 44,
      "questionType": "choice",
      "questionText": {
        "DE": " Ich habe meine Gefühle unter Kontrolle, werde selten wütend.",
        "EN": "I am someone who keeps their emotions under control."
      },
      "answerOptions": [
        {
          "answerId": 1,
          "answerWeight": 5,
          "answerText": {
            "DE": "Stimme überhaupt nicht zu",
            "EN": "Disagree strongly"
          }
        },
        {
          "answerId": 2,
          "answerWeight": 4,
          "answerText": {
            "DE": "Stimme eher nicht zu",
            "EN": "Disagree a little"
          }
        },
        {
          "answerId": 3,
          "answerWeight": 3,
          "answerText": {
            "DE": "Teils, teils",
            "EN": "Neutral; no opinion"
          }
        },
        {
          "answerId": 4,
          "answerWeight": 2,
          "answerText": {
            "DE": "Stimme eher zu",
            "EN": "Agree a little"
          }
        },
        {
          "answerId": 5,
          "answerWeight": 1,
          "answerText": {
            "DE": "Stimme voll und ganz zu",
            "EN": "Agree strongly"
          }
        }
      ]
    },
    {
      "questionId": 45,
      "questionType": "choice",
      "questionText": {
        "DE": "Ich bin nicht sonderlich fantasievoll.",
        "EN": "I am someone who has difficulty imagining things."
      },
      "answerOptions": [
        {
          "answerId": 1,
          "answerWeight": 5,
          "answerText": {
            "DE": "Stimme überhaupt nicht zu",
            "EN": "Disagree strongly"
          }
        },
        {
          "answerId": 2,
          "answerWeight": 4,
          "answerText": {
            "DE": "Stimme eher nicht zu",
            "EN": "Disagree a little"
          }
        },
        {
          "answerId": 3,
          "answerWeight": 3,
          "answerText": {
            "DE": "Teils, teils",
            "EN": "Neutral; no opinion"
          }
        },
        {
          "answerId": 4,
          "answerWeight": 2,
          "answerText": {
            "DE": "Stimme eher zu",
            "EN": "Agree a little"
          }
        },
        {
          "answerId": 5,
          "answerWeight": 1,
          "answerText": {
            "DE": "Stimme voll und ganz zu",
            "EN": "Agree strongly"
          }
        }
      ]
    },
    {
      "questionId": 46,
      "questionType": "choice",
      "questionText": {
        "DE": "Ich bin gesprächig.",
        "EN": "I am someone who is talkative."
      },
      "answerOptions": [
        {
          "answerId": 1,
          "answerWeight": 1,
          "answerText": {
            "DE": "Stimme überhaupt nicht zu",
            "EN": "Disagree strongly"
          }
        },
        {
          "answerId": 2,
          "answerWeight": 2,
          "answerText": {
            "DE": "Stimme eher nicht zu",
            "EN": "Disagree a little"
          }
        },
        {
          "answerId": 3,
          "answerWeight": 3,
          "answerText": {
            "DE": "Teils, teils",
            "EN": "Neutral; no opinion"
          }
        },
        {
          "answerId": 4,
          "answerWeight": 4,
          "answerText": {
            "DE": "Stimme eher zu",
            "EN": "Agree a little"
          }
        },
        {
          "answerId": 5,
          "answerWeight": 5,
          "answerText": {
            "DE": "Stimme voll und ganz zu",
            "EN": "Agree strongly"
          }
        }
      ]
    },
    {
      "questionId": 47,
      "questionType": "choice",
      "questionText": {
        "DE": "Andere sind mir eher gleichgültig, egal.",
        "EN": "I am someone who can be cold and uncaring."
      },
      "answerOptions": [
        {
          "answerId": 1,
          "answerWeight": 5,
          "answerText": {
            "DE": "Stimme überhaupt nicht zu",
            "EN": "Disagree strongly"
          }
        },
        {
          "answerId": 2,
          "answerWeight": 4,
          "answerText": {
            "DE": "Stimme eher nicht zu",
            "EN": "Disagree a little"
          }
        },
        {
          "answerId": 3,
          "answerWeight": 3,
          "answerText": {
            "DE": "Teils, teils",
            "EN": "Neutral; no opinion"
          }
        },
        {
          "answerId": 4,
          "answerWeight": 2,
          "answerText": {
            "DE": "Stimme eher zu",
            "EN": "Agree a little"
          }
        },
        {
          "answerId": 5,
          "answerWeight": 1,
          "answerText": {
            "DE": "Stimme voll und ganz zu",
            "EN": "Agree strongly"
          }
        }
      ]
    },
    {
      "questionId": 48,
      "questionType": "choice",
      "questionText": {
        "DE": "Ich bin eher der chaotische Typ, mache selten sauber.",
        "EN": "I am someone who leaves a mess, doesn't clean up."
      },
      "answerOptions": [
        {
          "answerId": 1,
          "answerWeight": 5,
          "answerText": {
            "DE": "Stimme überhaupt nicht zu",
            "EN": "Disagree strongly"
          }
        },
        {
          "answerId": 2,
          "answerWeight": 4,
          "answerText": {
            "DE": "Stimme eher nicht zu",
            "EN": "Disagree a little"
          }
        },
        {
          "answerId": 3,
          "answerWeight": 3,
          "answerText": {
            "DE": "Teils, teils",
            "EN": "Neutral; no opinion"
          }
        },
        {
          "answerId": 4,
          "answerWeight": 2,
          "answerText": {
            "DE": "Stimme eher zu",
            "EN": "Agree a little"
          }
        },
        {
          "answerId": 5,
          "answerWeight": 1,
          "answerText": {
            "DE": "Stimme voll und ganz zu",
            "EN": "Agree strongly"
          }
        }
      ]
    },
    {
      "questionId": 49,
      "questionType": "choice",
      "questionText": {
        "DE": "Ich werde selten nervös und unsicher.",
        "EN": "I am someone who rarely feels anxious or afraid."
      },
      "answerOptions": [
        {
          "answerId": 1,
          "answerWeight": 5,
          "answerText": {
            "DE": "Stimme überhaupt nicht zu",
            "EN": "Disagree strongly"
          }
        },
        {
          "answerId": 2,
          "answerWeight": 4,
          "answerText": {
            "DE": "Stimme eher nicht zu",
            "EN": "Disagree a little"
          }
        },
        {
          "answerId": 3,
          "answerWeight": 3,
          "answerText": {
            "DE": "Teils, teils",
            "EN": "Neutral; no opinion"
          }
        },
        {
          "answerId": 4,
          "answerWeight": 2,
          "answerText": {
            "DE": "Stimme eher zu",
            "EN": "Agree a little"
          }
        },
        {
          "answerId": 5,
          "answerWeight": 1,
          "answerText": {
            "DE": "Stimme voll und ganz zu",
            "EN": "Agree strongly"
          }
        }
      ]
    },
    {
      "questionId": 50,
      "questionType": "choice",
      "questionText": {
        "DE": "Ich finde Gedichte und Theaterstücke langweilig.",
        "EN": "I am someone who thinks poetry and plays are boring."
      },
      "answerOptions": [
        {
          "answerId": 1,
          "answerWeight": 5,
          "answerText": {
            "DE": "Stimme überhaupt nicht zu",
            "EN": "Disagree strongly"
          }
        },
        {
          "answerId": 2,
          "answerWeight": 4,
          "answerText": {
            "DE": "Stimme eher nicht zu",
            "EN": "Disagree a little"
          }
        },
        {
          "answerId": 3,
          "answerWeight": 3,
          "answerText": {
            "DE": "Teils, teils",
            "EN": "Neutral; no opinion"
          }
        },
        {
          "answerId": 4,
          "answerWeight": 2,
          "answerText": {
            "DE": "Stimme eher zu",
            "EN": "Agree a little"
          }
        },
        {
          "answerId": 5,
          "answerWeight": 1,
          "answerText": {
            "DE": "Stimme voll und ganz zu",
            "EN": "Agree strongly"
          }
        }
      ]
    },
    {
      "questionId": 51,
      "questionType": "choice",
      "questionText": {
        "DE": "In einer Gruppe überlasse ich lieber anderen die Entscheidung.",
        "EN": "I am someone who prefers to have others take charge."
      },
      "answerOptions": [
        {
          "answerId": 1,
          "answerWeight": 5,
          "answerText": {
            "DE": "Stimme überhaupt nicht zu",
            "EN": "Disagree strongly"
          }
        },
        {
          "answerId": 2,
          "answerWeight": 4,
          "answerText": {
            "DE": "Stimme eher nicht zu",
            "EN": "Disagree a little"
          }
        },
        {
          "answerId": 3,
          "answerWeight": 3,
          "answerText": {
            "DE": "Teils, teils",
            "EN": "Neutral; no opinion"
          }
        },
        {
          "answerId": 4,
          "answerWeight": 2,
          "answerText": {
            "DE": "Stimme eher zu",
            "EN": "Agree a little"
          }
        },
        {
          "answerId": 5,
          "answerWeight": 1,
          "answerText": {
            "DE": "Stimme voll und ganz zu",
            "EN": "Agree strongly"
          }
        }
      ]
    },
    {
      "questionId": 52,
      "questionType": "choice",
      "questionText": {
        "DE": "Ich bin höflich und zuvorkommend.",
        "EN": "I am someone who is polite, courteous to others."
      },
      "answerOptions": [
        {
          "answerId": 1,
          "answerWeight": 1,
          "answerText": {
            "DE": "Stimme überhaupt nicht zu",
            "EN": "Disagree strongly"
          }
        },
        {
          "answerId": 2,
          "answerWeight": 2,
          "answerText": {
            "DE": "Stimme eher nicht zu",
            "EN": "Disagree a little"
          }
        },
        {
          "answerId": 3,
          "answerWeight": 3,
          "answerText": {
            "DE": "Teils, teils",
            "EN": "Neutral; no opinion"
          }
        },
        {
          "answerId": 4,
          "answerWeight": 4,
          "answerText": {
            "DE": "Stimme eher zu",
            "EN": "Agree a little"
          }
        },
        {
          "answerId": 5,
          "answerWeight": 5,
          "answerText": {
            "DE": "Stimme voll und ganz zu",
            "EN": "Agree strongly"
          }
        }
      ]
    },
    {
      "questionId": 53,
      "questionType": "choice",
      "questionText": {
        "DE": "Ich bleibe an einer Aufgabe dran, bis sie erledigt ist.",
        "EN": "I am someone who is persistent, works until the task is finished."
      },
      "answerOptions": [
        {
          "answerId": 1,
          "answerWeight": 1,
          "answerText": {
            "DE": "Stimme überhaupt nicht zu",
            "EN": "Disagree strongly"
          }
        },
        {
          "answerId": 2,
          "answerWeight": 2,
          "answerText": {
            "DE": "Stimme eher nicht zu",
            "EN": "Disagree a little"
          }
        },
        {
          "answerId": 3,
          "answerWeight": 3,
          "answerText": {
            "DE": "Teils, teils",
            "EN": "Neutral; no opinion"
          }
        },
        {
          "answerId": 4,
          "answerWeight": 4,
          "answerText": {
            "DE": "Stimme eher zu",
            "EN": "Agree a little"
          }
        },
        {
          "answerId": 5,
          "answerWeight": 5,
          "answerText": {
            "DE": "Stimme voll und ganz zu",
            "EN": "Agree strongly"
          }
        }
      ]
    },
    {
      "questionId": 54,
      "questionType": "choice",
      "questionText": {
        "DE": "Ich bin oft deprimiert, niedergeschlagen.",
        "EN": "I am someone who tends to feel depressed, blue."
      },
      "answerOptions": [
        {
          "answerId": 1,
          "answerWeight": 1,
          "answerText": {
            "DE": "Stimme überhaupt nicht zu",
            "EN": "Disagree strongly"
          }
        },
        {
          "answerId": 2,
          "answerWeight": 2,
          "answerText": {
            "DE": "Stimme eher nicht zu",
            "EN": "Disagree a little"
          }
        },
        {
          "answerId": 3,
          "answerWeight": 3,
          "answerText": {
            "DE": "Teils, teils",
            "EN": "Neutral; no opinion"
          }
        },
        {
          "answerId": 4,
          "answerWeight": 4,
          "answerText": {
            "DE": "Stimme eher zu",
            "EN": "Agree a little"
          }
        },
        {
          "answerId": 5,
          "answerWeight": 5,
          "answerText": {
            "DE": "Stimme voll und ganz zu",
            "EN": "Agree strongly"
          }
        }
      ]
    },
    {
      "questionId": 55,
      "questionType": "choice",
      "questionText": {
        "DE": "Mich interessieren abstrakte Überlegungen wenig.",
        "EN": "I am someone who has little interest in abstract ideas."
      },
      "answerOptions": [
        {
          "answerId": 1,
          "answerWeight": 5,
          "answerText": {
            "DE": "Stimme überhaupt nicht zu",
            "EN": "Disagree strongly"
          }
        },
        {
          "answerId": 2,
          "answerWeight": 4,
          "answerText": {
            "DE": "Stimme eher nicht zu",
            "EN": "Disagree a little"
          }
        },
        {
          "answerId": 3,
          "answerWeight": 3,
          "answerText": {
            "DE": "Teils, teils",
            "EN": "Neutral; no opinion"
          }
        },
        {
          "answerId": 4,
          "answerWeight": 2,
          "answerText": {
            "DE": "Stimme eher zu",
            "EN": "Agree a little"
          }
        },
        {
          "answerId": 5,
          "answerWeight": 1,
          "answerText": {
            "DE": "Stimme voll und ganz zu",
            "EN": "Agree strongly"
          }
        }
      ]
    },
    {
      "questionId": 56,
      "questionType": "choice",
      "questionText": {
        "DE": " Ich bin begeisterungsfähig und kann andere leicht mitreißen.",
        "EN": "I am someone who shows a lot of enthusiasm."
      },
      "answerOptions": [
        {
          "answerId": 1,
          "answerWeight": 1,
          "answerText": {
            "DE": "Stimme überhaupt nicht zu",
            "EN": "Disagree strongly"
          }
        },
        {
          "answerId": 2,
          "answerWeight": 2,
          "answerText": {
            "DE": "Stimme eher nicht zu",
            "EN": "Disagree a little"
          }
        },
        {
          "answerId": 3,
          "answerWeight": 3,
          "answerText": {
            "DE": "Teils, teils",
            "EN": "Neutral; no opinion"
          }
        },
        {
          "answerId": 4,
          "answerWeight": 4,
          "answerText": {
            "DE": "Stimme eher zu",
            "EN": "Agree a little"
          }
        },
        {
          "answerId": 5,
          "answerWeight": 5,
          "answerText": {
            "DE": "Stimme voll und ganz zu",
            "EN": "Agree strongly"
          }
        }
      ]
    },
    {
      "questionId": 57,
      "questionType": "choice",
      "questionText": {
        "DE": " Ich schenke anderen leicht Vertrauen, glaube an das Gute im Menschen.",
        "EN": "I am someone who assumes the best about people."
      },
      "answerOptions": [
        {
          "answerId": 1,
          "answerWeight": 1,
          "answerText": {
            "DE": "Stimme überhaupt nicht zu",
            "EN": "Disagree strongly"
          }
        },
        {
          "answerId": 2,
          "answerWeight": 2,
          "answerText": {
            "DE": "Stimme eher nicht zu",
            "EN": "Disagree a little"
          }
        },
        {
          "answerId": 3,
          "answerWeight": 3,
          "answerText": {
            "DE": "Teils, teils",
            "EN": "Neutral; no opinion"
          }
        },
        {
          "answerId": 4,
          "answerWeight": 4,
          "answerText": {
            "DE": "Stimme eher zu",
            "EN": "Agree a little"
          }
        },
        {
          "answerId": 5,
          "answerWeight": 5,
          "answerText": {
            "DE": "Stimme voll und ganz zu",
            "EN": "Agree strongly"
          }
        }
      ]
    },
    {
      "questionId": 58,
      "questionType": "choice",
      "questionText": {
        "DE": "Manchmal verhalte ich mich verantwortungslos, leichtsinnig.",
        "EN": "I am someone who sometimes behave irresponsibly."
      },
      "answerOptions": [
        {
          "answerId": 1,
          "answerWeight": 5,
          "answerText": {
            "DE": "Stimme überhaupt nicht zu",
            "EN": "Disagree strongly"
          }
        },
        {
          "answerId": 2,
          "answerWeight": 4,
          "answerText": {
            "DE": "Stimme eher nicht zu",
            "EN": "Disagree a little"
          }
        },
        {
          "answerId": 3,
          "answerWeight": 3,
          "answerText": {
            "DE": "Teils, teils",
            "EN": "Neutral; no opinion"
          }
        },
        {
          "answerId": 4,
          "answerWeight": 2,
          "answerText": {
            "DE": "Stimme eher zu",
            "EN": "Agree a little"
          }
        },
        {
          "answerId": 5,
          "answerWeight": 1,
          "answerText": {
            "DE": "Stimme voll und ganz zu",
            "EN": "Agree strongly"
          }
        }
      ]
    },
    {
      "questionId": 59,
      "questionType": "choice",
      "questionText": {
        "DE": "Ich reagiere schnell gereizt oder genervt.",
        "EN": "I am someone who is temperamental, gets emotional easily."
      },
      "answerOptions": [
        {
          "answerId": 1,
          "answerWeight": 1,
          "answerText": {
            "DE": "Stimme überhaupt nicht zu",
            "EN": "Disagree strongly"
          }
        },
        {
          "answerId": 2,
          "answerWeight": 2,
          "answerText": {
            "DE": "Stimme eher nicht zu",
            "EN": "Disagree a little"
          }
        },
        {
          "answerId": 3,
          "answerWeight": 3,
          "answerText": {
            "DE": "Teils, teils",
            "EN": "Neutral; no opinion"
          }
        },
        {
          "answerId": 4,
          "answerWeight": 4,
          "answerText": {
            "DE": "Stimme eher zu",
            "EN": "Agree a little"
          }
        },
        {
          "answerId": 5,
          "answerWeight": 5,
          "answerText": {
            "DE": "Stimme voll und ganz zu",
            "EN": "Agree strongly"
          }
        }
      ]
    },
    {
      "questionId": 60,
      "questionType": "choice",
      "questionText": {
        "DE": "Ich bin originell, entwickle neue Ideen.",
        "EN": "I am someone who is original, comes up with new ideas."
      },
      "answerOptions": [
        {
          "answerId": 1,
          "answerWeight": 1,
          "answerText": {
            "DE": "Stimme überhaupt nicht zu",
            "EN": "Disagree strongly"
          }
        },
        {
          "answerId": 2,
          "answerWeight": 2,
          "answerText": {
            "DE": "Stimme eher nicht zu",
            "EN": "Disagree a little"
          }
        },
        {
          "answerId": 3,
          "answerWeight": 3,
          "answerText": {
            "DE": "Teils, teils",
            "EN": "Neutral; no opinion"
          }
        },
        {
          "answerId": 4,
          "answerWeight": 4,
          "answerText": {
            "DE": "Stimme eher zu",
            "EN": "Agree a little"
          }
        },
        {
          "answerId": 5,
          "answerWeight": 5,
          "answerText": {
            "DE": "Stimme voll und ganz zu",
            "EN": "Agree strongly"
          }
        }
      ]
    }
  ]
}